[gd_scene load_steps=5 format=1]

[ext_resource path="res://scripts/paddle.gd" type="Script" id=1]
[ext_resource path="res://Sprites/Paddle.png" type="Texture" id=2]
[ext_resource path="res://sprites/arrow.png" type="Texture" id=3]

[sub_resource type="RectangleShape2D" id=1]

custom_solver_bias = 0.0
extents = Vector2( 64, 8 )

[node name="paddle" type="RigidBody2D"]

input/pickable = false
shapes/0/shape = SubResource( 1 )
shapes/0/transform = Matrix32( 1, 0, 0, 1, 0, 0 )
shapes/0/trigger = false
collision/layers = 1
collision/mask = 1
mode = 0
mass = 9999.0
friction = 0.0
bounce = 1.0
gravity_scale = 0.0
custom_integrator = false
continuous_cd = 0
contacts_reported = 0
contact_monitor = true
sleeping = false
can_sleep = true
velocity/linear = Vector2( 0, 0 )
velocity/angular = 0.0
damp_override/linear = 0.0
damp_override/angular = 0.0
script/script = ExtResource( 1 )

[node name="sprite_paddle" type="Sprite" parent="."]

transform/scale = Vector2( 0.25, 0.25 )
texture = ExtResource( 2 )

[node name="shape" type="CollisionShape2D" parent="."]

shape = SubResource( 1 )
trigger = false
_update_shape_index = 0

[node name="sprite_line" type="Sprite" parent="."]

transform/pos = Vector2( 0, -16 )
texture = ExtResource( 3 )
offset = Vector2( 0, -64 )


