[gd_scene load_steps=7 format=1]

[ext_resource path="res://scripts/main_menu.gd" type="Script" id=1]
[ext_resource path="res://addons/GodotSTM/simple_text_menu.gd" type="Script" id=2]
[ext_resource path="res://addons/GodotSTM/GodotSTM_icon.png" type="Texture" id=3]
[ext_resource path="res://fonts/cave_font.ttf" type="DynamicFontData" id=4]
[ext_resource path="res://scenes/background.tscn" type="PackedScene" id=5]

[sub_resource type="DynamicFont" id=1]

font/size = 79
font/use_mipmaps = false
font/use_filter = false
font/font = ExtResource( 4 )

[node name="main_menu" type="CanvasLayer"]

layer = 1
offset = Vector2( 0, 0 )
rotation = 0.0
scale = Vector2( 1, 1 )
script/script = ExtResource( 1 )

[node name="menu" type="Control" parent="."]

anchor/left = 3
anchor/right = 3
focus/ignore_mouse = false
focus/stop_mouse = true
size_flags/horizontal = 2
size_flags/vertical = 2
margin/left = 177.0
margin/top = 262.0
margin/right = -168.0
margin/bottom = 462.0
script/script = ExtResource( 2 )
__meta__ = {
"_editor_icon": ExtResource( 3 )
}
options = "Load Stage
Stage Editor
Options
Quit Game"
orientation = 1
offset = 0
options_font = SubResource( 1 )
signal_argument = 0
initial_option = 0
cursor_side = 0
cursor_offset = 0
blinking_cursor_rate = 0.0
options_color = Color( 1, 1, 1, 1 )
cursor_color = Color( 1, 1, 1, 1 )
menu_enabled = true

[node name="background" parent="." instance=ExtResource( 5 )]


