[gd_scene load_steps=5 format=1]

[ext_resource path="res://scripts/stage_manager.gd" type="Script" id=1]
[ext_resource path="res://sprites/Background.png" type="Texture" id=2]

[sub_resource type="Animation" id=1]

resource/name = "fade_in"
length = 0.5
loop = false
step = 0.1
tracks/0/type = "value"
tracks/0/path = NodePath("black:visibility/opacity")
tracks/0/interp = 1
tracks/0/imported = false
tracks/0/keys = {
"times": FloatArray( 0, 0.5 ),
"transitions": FloatArray( 1, 1 ),
"update": 0,
"values": [ 0.0, 1.0 ]
}

[sub_resource type="Animation" id=2]

resource/name = "fade_out"
length = 0.5
loop = false
step = 0.1
tracks/0/type = "value"
tracks/0/path = NodePath("black:visibility/opacity")
tracks/0/interp = 1
tracks/0/imported = false
tracks/0/keys = {
"times": FloatArray( 0, 0.5 ),
"transitions": FloatArray( 1, 1 ),
"update": 0,
"values": [ 1.0, 0.0 ]
}

[node name="stage_manager" type="CanvasLayer"]

layer = 10
offset = Vector2( 0, 0 )
rotation = 0.0
scale = Vector2( 1, 1 )
script/script = ExtResource( 1 )

[node name="black" type="TextureFrame" parent="."]

visibility/opacity = 0.0
focus/ignore_mouse = true
focus/stop_mouse = true
size_flags/horizontal = 2
size_flags/vertical = 2
margin/left = 0.0
margin/top = 0.0
margin/right = 1024.0
margin/bottom = 600.0
texture = ExtResource( 2 )
expand = true
stretch_mode = 0

[node name="anim" type="AnimationPlayer" parent="."]

playback/process_mode = 1
playback/default_blend_time = 0.0
root/root = NodePath("..")
anims/fade_in = SubResource( 1 )
anims/fade_out = SubResource( 2 )
playback/active = true
playback/speed = 1.0
blend_times = [  ]
autoplay = ""


